{
    "name": "InputMaster",
    "maps": [
        {
            "name": "Player",
            "id": "594409db-c399-4595-9f53-4b7f5affb588",
            "actions": [
                {
                    "name": "Move",
                    "type": "PassThrough",
                    "id": "96137cbf-612d-4bd7-907e-d8f4ed407c13",
                    "expectedControlType": "",
                    "processors": "",
                    "interactions": ""
                },
                {
                    "name": "Mouse",
                    "type": "PassThrough",
                    "id": "5012a06a-8bbc-4bdb-b6e1-57e271404c76",
                    "expectedControlType": "",
                    "processors": "",
                    "interactions": ""
                }
            ],
            "bindings": [
                {
                    "name": "WASD",
                    "id": "2e14455d-8e05-44fa-b8d2-b925a2ae23e4",
                    "path": "2DVector",
                    "interactions": "",
                    "processors": "",
                    "groups": "",
                    "action": "Move",
                    "isComposite": true,
                    "isPartOfComposite": false
                },
                {
                    "name": "up",
                    "id": "6ca92892-5b82-4f4d-ace3-18f8f7c94782",
                    "path": "<Keyboard>/w",
                    "interactions": "",
                    "processors": "",
                    "groups": "Keyboard",
                    "action": "Move",
                    "isComposite": false,
                    "isPartOfComposite": true
                },
                {
                    "name": "down",
                    "id": "33a5ab73-1e6f-4d39-a935-4d2a5ae72aee",
                    "path": "<Keyboard>/s",
                    "interactions": "",
                    "processors": "",
                    "groups": "Keyboard",
                    "action": "Move",
                    "isComposite": false,
                    "isPartOfComposite": true
                },
                {
                    "name": "left",
                    "id": "fe42acfc-cc4b-4cb3-a5dc-2f7131c33f91",
                    "path": "<Keyboard>/a",
                    "interactions": "",
                    "processors": "",
                    "groups": "Keyboard",
                    "action": "Move",
                    "isComposite": false,
                    "isPartOfComposite": true
                },
                {
                    "name": "right",
                    "id": "10ad5adf-95a9-48e5-93f3-40380958d703",
                    "path": "<Keyboard>/d",
                    "interactions": "",
                    "processors": "",
                    "groups": "Keyboard",
                    "action": "Move",
                    "isComposite": false,
                    "isPartOfComposite": true
                },
                {
                    "name": "",
                    "id": "bf8cc919-6258-44a2-aa81-e0f9ea1c9a5e",
                    "path": "<Pointer>/delta",
                    "interactions": "",
                    "processors": "",
                    "groups": "Keyboard",
                    "action": "Mouse",
                    "isComposite": false,
                    "isPartOfComposite": false
                }
            ]
        }
    ],
    "controlSchemes": [
        {
            "name": "Keyboard",
            "bindingGroup": "Keyboard",
            "devices": []
        }
    ]
}